{
  "type": "service_account",
  "project_id": "diagnostica-35f50",
  "private_key_id": "c61817bb846aac121020ce4415ad50ff4d608151",
  "private_key": "-----BEGIN PRIVATE KEY-----\nMIIEvQIBADANBgkqhkiG9w0BAQEFAASCBKcwggSjAgEAAoIBAQC0H/Fc+gt7Bmvd\nKYIrXG1MS9HCUnQ+W36ZNJG6BRi+3A+Rce2kf3giKwy+Eh9KheHMjsBYsSdZOQTR\nACLsPG3E9ATI4KqdIAGbS21GFLKhpC+RhKHHHzDuwMRcr96UO1HYKnh73ob9s5/8\nr9VPOPyus0tC0GGe7/Urmz4f5nuS00p5+G7ejWsc2Go8mhocrzRMPJI/De8KQVdn\nvp/XuitsqrZ+AcBXTSg5BkMKnFIXb9cCDN6HaroTfEexXb0RHFVw7d0Rx1v2vCGz\nHPL1LDcePN3RHoNzmdbSCQsEpyXSQYxFHFUgX1Z/SNpmK5XJE+ljRcND4+btnuQR\nDDV4Tt6TAgMBAAECggEABbHc16uwITuavWtKikRp0De1cgdZVX9fCUj4MoFmvuIG\nO/r2IHVHPw1NYdUA2EJTWTxKKIOxUsjStiji8cUXU1rDq/YubrlMU7SWx9hvrVyb\nhGZFFx6NVX8Stjt5NgaKF+N/26q1ad/79uk4PUD3/C3++yXLcFL11WMbG7cVwRaP\nVIByA+tt9TfOFFnofy/vmGmxWFX5DhkEyHX7YfRxtkBFapnDlbpNm+ksIXMew87d\nE5qFRAN4yu3Yv6HNNqlOojmCYOD3nZMRi+lPMwq+k4ggcwzLidaTCOvqpVuUk+Uu\nPAtgLCZ/y6bsk7lGP2q08V3w0oT+AuYzolwjGaYBAQKBgQD3yVglBlth0sC92oxC\nkC3fO5yaW1pKCEKUGvTmICf/tjriTYcuXnnojApyY6JTKCcsACGtBPvXnGvmv/k1\nFqReeAKxo1Z54FP58U55BdIiuwufILCmTGthVHvoG09Sa2Xbnf3zx481PviCPQJE\nQM8m48lomWxTp9p8en2y2/i6gwKBgQC6GHAKC+ipVT3QcOHArg7TigqAClWStp6H\nz+fkOhA8LsdYSE1Tw7YsIMdsf4hNJu2f1IBWQxVVUawYHJFmUKTHF4q5d+losUG3\nNBwtSgvLdSTkWcn2CEeOQ11AaBRf0mDc+u9nVgMKQHjXVuTfx2jK4/KxlvgBAA63\nlJusZdZOsQKBgQCc8ZS47svWrAyUs+Z/Cp9jc3h/dDk+BvlUobZYRCnRl3S4fe6P\nehuxJXJAfccE8LvO7M5nrm5tZJAbeaC49XxqsYzTQue1DldiSmsv0HYGtX5o7eW1\nj1W8MizBGPsm8wtzDSEa1V1pllcE9uuGm54ZvdGGRRcN7ZU/nr4bGaTzTQKBgH64\nc1qz/0uHix8sLt346Imt3zaPUvQjvNH4hgzIaRPCOuZn3ZgjliJ4c7PzKAp5bqg+\nmOGkrps5kTmeAnisg3g7FLD08ZDj2z74khNY760s6OFCLx+FRcyfHJnmBbG2XVU8\n3tb8H/fULTVdq16iuD4oeLPrfJeZxWvHGzaK5iMRAoGACNz0n9Kwp/0luOA/749l\nNi2LJBgXqc/tPCbmABCJtWI6OWhxFst5idukUj23JGfGzUKXrqY5N6y1pR4R4Vgy\n1L6mEsdJqFYzwvJ6nf18ugME51SfEfT19ihf7lA1VFH1iqmBQHSJof5fWNhepxtN\nzISYx/Owntcm8WIFSSjhE6Q=\n-----END PRIVATE KEY-----\n",
  "client_email": "firebase-adminsdk-kbfd1@diagnostica-35f50.iam.gserviceaccount.com",
  "client_id": "106701087138389265721",
  "auth_uri": "https://accounts.google.com/o/oauth2/auth",
  "token_uri": "https://oauth2.googleapis.com/token",
  "auth_provider_x509_cert_url": "https://www.googleapis.com/oauth2/v1/certs",
  "client_x509_cert_url": "https://www.googleapis.com/robot/v1/metadata/x509/firebase-adminsdk-kbfd1%40diagnostica-35f50.iam.gserviceaccount.com"
}