<?xml version="1.0" encoding="UTF-8" standalone="no"?>
<!-- Created with Inkscape (http://www.inkscape.org/) -->

<svg
   xmlns:dc="http://purl.org/dc/elements/1.1/"
   xmlns:cc="http://creativecommons.org/ns#"
   xmlns:rdf="http://www.w3.org/1999/02/22-rdf-syntax-ns#"
   xmlns:svg="http://www.w3.org/2000/svg"
   xmlns="http://www.w3.org/2000/svg"
   xmlns:sodipodi="http://sodipodi.sourceforge.net/DTD/sodipodi-0.dtd"
   xmlns:inkscape="http://www.inkscape.org/namespaces/inkscape"
   width="77.86438mm"
   height="72.455292mm"
   viewBox="0 0 77.864378 72.455291"
   version="1.1"
   id="svg8"
   inkscape:version="0.92.4 (5da689c313, 2019-01-14)"
   sodipodi:docname="logo-light--icon.svg">
  <defs
     id="defs2" />
  <sodipodi:namedview
     id="base"
     pagecolor="#ffffff"
     bordercolor="#666666"
     borderopacity="1.0"
     inkscape:pageopacity="0.0"
     inkscape:pageshadow="2"
     inkscape:zoom="0.35"
     inkscape:cx="109.48752"
     inkscape:cy="-7.7787481"
     inkscape:document-units="mm"
     inkscape:current-layer="g1149"
     showgrid="false"
     fit-margin-top="0"
     fit-margin-left="0"
     fit-margin-right="0"
     fit-margin-bottom="0"
     inkscape:window-width="1920"
     inkscape:window-height="1016"
     inkscape:window-x="0"
     inkscape:window-y="27"
     inkscape:window-maximized="1"
     inkscape:pagecheckerboard="true" />
  <metadata
     id="metadata5">
    <rdf:RDF>
      <cc:Work
         rdf:about="">
        <dc:format>image/svg+xml</dc:format>
        <dc:type
           rdf:resource="http://purl.org/dc/dcmitype/StillImage" />
        <dc:title></dc:title>
      </cc:Work>
    </rdf:RDF>
  </metadata>
  <g
     inkscape:label="Layer 1"
     inkscape:groupmode="layer"
     id="layer1"
     transform="translate(-109.68151,-270.62557)">
    <g
       id="g1149"
       transform="translate(267.65032,-134.55952)">
      <path
         inkscape:connector-curvature="0"
         id="path1145"
         d="m -119.65801,477.4372 c -0.41787,-0.25682 -4.16037,-3.58063 -11.44253,-10.16243 -9.02294,-8.15513 -15.78951,-14.42549 -17.74051,-16.43954 -3.91336,-4.03981 -6.91579,-9.59755 -8.41023,-15.56799 -0.54679,-2.18446 -0.78925,-4.73109 -0.69915,-7.34324 0.0878,-2.546 0.2771,-3.80333 0.89771,-5.96302 2.00396,-6.97372 6.46821,-12.43837 12.31506,-15.07476 4.45991,-2.011 9.80153,-2.23958 14.55316,-0.62274 3.53524,1.20294 6.31974,3.16568 9.25651,6.52476 0.96818,1.1074 1.57728,1.69333 1.76028,1.69333 0.0691,0 0.67388,-0.65722 1.34395,-1.4605 1.60452,-1.92347 2.85925,-3.05568 4.75722,-4.29271 1.08043,-0.70419 3.27198,-1.80447 4.47548,-2.24694 3.80832,-1.40016 7.68368,-1.66811 11.48418,-0.79404 3.70768,0.85273 7.27267,2.8865 10.06138,5.73986 2.954889,3.02339 4.927729,6.75633 6.111169,11.56333 0.77089,3.13123 0.99045,5.64286 0.71794,8.21267 -0.78874,7.43808 -4.546809,15.25462 -9.835889,20.45805 -1.58228,1.55665 -9.99313,9.1478 -19.83926,17.90576 -7.60237,6.76217 -9.14415,8.08726 -9.39342,8.07322 -0.0258,-10e-4 -0.19367,-0.0928 -0.37305,-0.20307 z m 2.62396,-6.71257 c 5.75096,-5.05084 18.34842,-16.31058 21.9034,-19.5775 l 1.34123,-1.23255 -4.61456,-0.0528 c -4.74309,-0.0543 -5.29173,-0.0806 -6.03875,-0.2902 -0.50633,-0.14203 -0.90314,-0.53467 -1.04146,-1.03051 -0.10406,-0.37298 -2.69321,-16.68648 -2.7207,-17.14231 -0.0173,-0.28738 -0.24464,0.70551 -1.34107,5.85816 -1.72728,8.1172 -2.39949,11.02626 -2.71144,11.73395 -0.27284,0.61897 -1.13358,0.96436 -1.96107,0.78689 -0.33129,-0.0711 -0.52315,-0.17923 -0.78783,-0.44421 -0.35173,-0.35217 -1.2933,-1.78556 -2.38373,-3.6289 -0.32296,-0.54592 -0.60686,-0.9936 -0.63089,-0.99483 -0.024,-10e-4 -0.87803,1.49319 -1.89775,3.32093 -2.41849,4.33489 -3.65276,6.42967 -4.06661,6.90183 -0.74272,0.84736 -1.86295,0.92445 -2.5587,0.17608 -0.3471,-0.37337 -1.47114,-3.01624 -4.85365,-11.41202 -1.24871,-3.09946 -2.36632,-5.86399 -2.48357,-6.14339 l -0.21318,-0.508 -0.50495,1.05952 c -0.27773,0.58274 -1.14204,2.44964 -1.92069,4.14867 -1.44579,3.15472 -2.89633,6.13079 -3.29927,6.76909 -0.37666,0.59667 -0.7121,0.69344 -2.77559,0.8007 l -1.75767,0.0914 1.8,1.65746 c 7.38773,6.80275 23.14841,21.07554 23.27259,21.07554 0.031,0 1.04168,-0.86533 2.24591,-1.92295 z m -7.01241,-23.32889 c 0.50909,-0.89641 1.56378,-2.77283 2.34376,-4.16983 0.77999,-1.397 1.61054,-2.81893 1.8457,-3.15985 1.00998,-1.46415 1.87099,-1.71798 2.83164,-0.83478 0.49547,0.45554 0.85546,0.94833 1.66856,2.2841 0.36274,0.59591 0.6765,1.06651 0.69723,1.04578 0.0607,-0.0607 0.19211,-0.66507 1.75216,-8.05592 2.19587,-10.403 3.13611,-14.6109 3.36319,-15.05149 0.50659,-0.98288 1.67317,-1.12509 2.80687,-0.34215 0.55096,0.38049 0.62161,0.58215 0.94478,2.69712 0.16338,1.06912 1.02031,6.573 1.90429,12.23085 0.884,5.65785 1.65264,10.61591 1.7081,11.0179 l 0.10084,0.7309 0.64473,0.0508 c 0.35461,0.0279 3.04697,0.0761 5.98306,0.10712 l 5.33833,0.0563 0.85515,-1.3111 c 1.84723,-2.83217 2.89986,-4.92431 3.80451,-7.56159 1.555199,-4.53379 1.829929,-8.40183 0.90774,-12.78023 -1.13102,-5.36988 -4.18575,-9.9644 -8.51577,-12.80831 -5.48603,-3.60316 -13.07098,-3.21716 -18.6503,0.94913 -0.92886,0.69361 -2.46481,2.19933 -3.28339,3.21874 -0.91874,1.14415 -1.19762,1.43218 -1.81983,1.87953 -1.52084,1.09345 -3.60226,1.06128 -5.02649,-0.0777 -0.19108,-0.15281 -0.8941,-0.91126 -1.56227,-1.68544 -2.32347,-2.69209 -4.16656,-4.18804 -6.51616,-5.28882 -3.29542,-1.5439 -7.29911,-1.87999 -10.87486,-0.9129 -5.66074,1.53099 -10.57448,6.66328 -12.35163,12.90099 -1.10667,3.88436 -1.26797,7.89214 -0.46325,11.5103 0.39329,1.76832 1.58479,5.14483 2.37676,6.73536 0.43293,0.86948 1.44218,2.53848 2.378,3.93253 l 0.82112,1.2232 1.86267,-0.0176 c 1.02447,-0.01 2.30245,-0.0412 2.83996,-0.07 l 0.9773,-0.0523 0.92132,-2.0422 c 4.84468,-10.73872 5.76384,-12.59656 6.58995,-13.31986 0.75689,-0.66269 1.77253,-0.33488 2.50657,0.80902 0.31173,0.48578 0.73797,1.51581 4.38468,10.59564 2.88975,7.1951 2.89038,7.19667 2.94694,7.19667 0.0178,0 0.44893,-0.73343 0.95804,-1.62984 z"
         style="fill:#ffffff;stroke-width:0.08466667" />
    </g>
  </g>
</svg>
